ANOVA_part_1_lab_script_answers
…
Question 1

24 participants responded to a word that was either common (i.e., high lexical frequency) or rare (i.e., low lexical frequency). This is our IV and is coded as High vs.Low. Our DV is reaction time and is coded as RT. Subject number is coded as Subject. We want to know whether there is a difference between conditions (and if so, where that difference lies). Visualise the data, generate descrtiptives, and run the appropriate ANOVA to determine whether our independent variable (Condition) has an influence on our dependent variable (RT).

We need to load our first data file. When we load it, we assign it to a new variable were caloing my_data.

my_data <- read_csv("https://raw.githubusercontent.com/ajstewartlang/11_glm_anova_pt1/master/data/ANOVA_data1.csv")

If you type my_data you will see the first 10 rows of our dataframe..

my_data

## # A tibble: 24 x 3
##    Subject Condition    RT
##      <dbl> <chr>     <dbl>
##  1       1 low        1103
##  2       2 low        1170
##  3       3 low        1225
##  4       4 low        1084
##  5       5 low        1219
##  6       6 low        1203
##  7       7 low        1208
##  8       8 low        1311
##  9       9 low        1078
## 10      10 low        1326
## #  with 14 more rows
…
